GPU4:0c.00.0:Radeon RX 570:115-C940PI0-100:Elpida EDW4032BABG:GDDR5:Polaris10
GPU5:0d.00.0:Radeon RX 570:115-C940PI0-100:Elpida EDW4032BABG:GDDR5:Polaris10
GPU0:03.00.0:Radeon RX 570:115-C940PI0-100:Elpida EDW4032BABG:GDDR5:Polaris10
GPU6:0f.00.0:Radeon RX 570:115-C940PI0-100:Elpida EDW4032BABG:GDDR5:Polaris10
GPU7:10.00.0:Radeon RX 570:115-C940PI0-100:Elpida EDW4032BABG:GDDR5:Polaris10
GPU2:0a.00.0:Radeon RX 570:115-C940PI0-100:Elpida EDW4032BABG:GDDR5:Polaris10
GPU3:0b.00.0:Radeon RX 570:115-C940PI0-100:Elpida EDW4032BABG:GDDR5:Polaris10
GPU1:07.00.0:Radeon RX 570:115-C940PI0-100:Elpida EDW4032BABG:GDDR5:Polaris10